#use wml::std::tags
#use wml::debian::common_tags

<bind-gettext-domain domain="others" />

<perl>

# Please keep translation sorted properly

my %translation_notes = (
        french  => q{<gettext domain="others">See <a href="m4_HOME/intl/french/">https://www.debian.org/intl/french/</a> (only available in French) for more information.</gettext>},
        german => q{(<a href="m4_HOME/intl/German/#website"><gettext domain="others">More information</gettext></a>)},
        spanish => q{<gettext domain="others">See <a href="m4_HOME/intl/spanish/">https://www.debian.org/intl/spanish/</a> (only available in Spanish) for more information.</gettext>},
        portuguese => q{(<a href="https://debian-br.alioth.debian.org/index.php?id=WebWML"><gettext domain="others">More information</gettext></a>)},
        swedish => q{(<a href="m4_HOME/intl/Swedish/bidragslamnare#web"><gettext domain="others">More information</gettext></a>)},
	norwegian => q{(<a href="m4_HOME/intl/Norwegian#translators"><gettext domain="others">More information</gettext></a>)},
);

my %translators = (
  arabic => {
	'Ayman Negm' => 'negm@debian.org',
	'Mohammed Adn&egrave;ne Trojette' => 'adn+deb@diwi.org',
        },
  armenian => {
	'Vardan Gevorgyan' => 'vgevorgyan@debian.am',
  },
  bulgarian => {
	'Rumen Krasstev' => 'rkrastev@obs.bg',
	},
  catalan => {
	'Jordi Mallach' => 'jordi@debian.org',
        },
  chinese => {
	'Anthony Fok (<span lang="zh-TW">&#38669;&#26481;&#38728;</span>)' => 'foka@debian.org',
	'Boyuan Yang (<span lang="zh-CN">&#26472;&#21338;&#36828;</span>)' => '073plan@gmail.com',
	'Kanru Chen (<span lang="zh-TW">&#38515;&#20355;&#22914;</span>)' => 'koster@debian.org',
	'Anthony Wong (<span lang="zh-TW">&#40643;&#24421;&#37030;</span>)' => 'ypwong@gmail.com',
        },
  croatian => {
	'Josip Rodin' => 'joy-web@debian.org',
        },
  czech => {
	'Juraj Kubelka' => 'Juraj.Kubelka@email.cz',
	'Miroslav Kure' => 'kurem@upcase.inf.upol.cz'
	},
  danish => {
	'K&aring;re Thor Olsen' => 'kaare@nightcall.dk',
        },                                       
  dutch => {
	'Dutch Translation Team' => 'debian-l10n-dutch@lists.debian.org',
        },
  esperanto => {
	'Eduardo Tr&aacute;pani' => 'etrapani@unesco.org.uy',
        },
  finnish => {
	'Tommi Vainikainen' => 'thv+debwww@iki.fi',
        },
  french => {
	'Simon Paillard' => 'debian-l10n-french@lists.debian.org',
	},
  galician => {
        'Jorge Barreiro' => 'yortx.barry@gmail.com',
        },
  german => {
	'German Translation Team' => 'debian-l10n-german@lists.debian.org',
        },
  greek => {
	'George Papamichelakis' => 'debian-l10n-greek@lists.debian.org',
        },
  hebrew => {
	'Oz Nahum' => 'nahumoz@gmail.com',
	},
  hungarian => {
	'Szabolcs Siebenhofer' => 'the7up@gmail.com',
        },
  indonesian => {
	'Junaedi Kartawijaya' => 'milisdebian@yahoo.com',
	'Izharul Haq' => 'atoz.chevara@yahoo.com',
	'Mahyuddin Susanto' => 'udienz@ubuntu.com',
        },
  italian => {
  	'Beatrice Torracca' => 'beatricet@libero.it',
	'Giuseppe Sacco' => 'eppesuig@debian.org',
# email bounce since a few months. 2012-10-18
#	'Daniele Venzano' => 'venza@libero.it',
	'Italian Translation Team' => 'debian-l10n-italian@lists.debian.org',
        },
  japanese => {
	'Japanese Translation Team' => 'debian-japanese@lists.debian.org',
        },
  korean => {
        'Korean Translation Team' => 'debian-l10n-korean@lists.debian.org',
#       'Hyun-gwan Seo (&#49436;&#54788;&#44288;)' => 'westporch@gmail.com (or westporch@debianusers.or.kr)',
        'Sebul' => 'sebuls@gmail.com',
        },
  lithuanian => {
	'Martynas Sklizmantas' => 'saint@ghost.lt',
        },
  malayalam => {
  'Praveen Arimbrathodiyil' => 'pravi.a@gmail.com',
        },
  norwegian => {
	'Hans F. Nordhaug' => 'hansfn@gmail.com',
        },
  persian => {
	'Debian Localization Persian team' => 'debian-l10n-persian@lists.debian.org',
  	'Behrad Eslamifar' => 'behrad_es@yahoo.com',
	},
  polish => {
	'Bartosz Fe&#324;ski' => 'fenio@debian.org',
	'Marcin Owsiany' => 'porridge@debian.org',
        },
  portuguese => {
  	'Felipe Augusto van de Wiel (faw)' => 'faw@debian.org',
        },
  romanian => {
    'Romanian Translation Team' => 'debian-l10n-romanian@lists.debian.org',
	'Ionel Mugurel Ciob&icirc;c&#259;' => 'I.M.Ciobica@tue.nl',
    'Andrei Popescu' => 'andreimpopescu@gmail.com',
        },
  russian => {
	'Yuri Kozlov' => 'debian-l10n-russian@lists.debian.org',
        },
  spanish => {
	'Laura Arjona Reina' => 'larjona@debian.org',
	},
  swedish => {
	'Andreas R&ouml;nnquist' => 'gusnan@debian.org',
        },
  slovene => {
	'Zoran Obradovi&#263;' => 'zocky@huda.ljudmila.org',
        },
  slovak => {
	'Ivan Mas&aacute;r' => 'helix84@centrum.sk',
  	},
  tamil => {
  	'Sri Ramadoss  M | &#2990;&#32;&#3000;&#3021;&#2992;&#3008;&#32;&#2992;&#3006;&#2990;&#2980;&#3006;&#3000;&#3021;' => 'ramadasan@amachu.net',
  	},
  turkish => {
	'Onur Aslan' => 'onur@onur.im',
        },
  ukrainian => {
	'Eugeniy Meshcheryakov (&#1028;&#1074;&#1075;&#1077;&#1085;&#1110;&#1081; &#1052;&#1077;&#1097;&#1077;&#1088;&#1103;&#1082;&#1086;&#1074;)' => 'eugen@debian.org',
	},
  vietnamese => {
  'Vietnamese Translation Team' => 'debian-l10n-vietnamese@lists.debian.org',
  },
);

sub list_translators {
my $lang = shift;
unless (defined $lang) {
  print "<ul>";
  my %translang = map { $trans{$CUR_ISO_LANG}{$_} => $_ } keys %langs;
  foreach $tlang (sort langcmp keys %translang) {
    $lang = $translang{$tlang};
    next if ($lang eq "english");
    if (defined $translators{$lang}) {
     if ($CUR_ISO_LANG eq 'fr'){
      print "<li>$tlang : ";
     }else{
      print "<li>$tlang: ";
     }
      my $num = scalar keys %{$translators{$lang}};
      foreach $person (keys %{$translators{$lang}}) {
        print "$person &lt;$translators{$lang}{$person}&gt;";
        $num--;
        print ", " if ($num);
      }
    }
    if (defined $translation_notes{$lang}) {
      print "<br />\n";
      print "$translation_notes{$lang}";
    }
    if (defined $translators{$lang}) {
      print "</li>\n";
    }
  }
  print "</ul>";
} else {
  $lang = lc $lang;
  return if ($lang eq "english");
  if (defined $translators{$lang}) {
    my $num = scalar keys %{$translators{$lang}};
    foreach $person (keys %{$translators{$lang}}) {
      print "$person &lt;$translators{$lang}{$person}&gt;";
      $num--;
      print ", " if ($num);
    }
  } else {
    die "There are no translators for $lang. WTF?\n";
  }
  if (defined $translation_notes{$lang}) {
    print "<br />\n";
    print "$translation_notes{$lang}\n";
  }
}
}
</perl>
