<define-tag pagetitle>DLA-1128-1 qemu-kvm</define-tag>
<define-tag report_date>2017-10-8</define-tag>
<define-tag secrefs>CVE-2017-14167 CVE-2017-15038</define-tag>
<define-tag packages>qemu-kvm</define-tag>
<define-tag isvulnerable>yes</define-tag>
<define-tag fixed>yes</define-tag>
<define-tag fixed-section>no</define-tag>

#use wml::debian::security

