<define-tag pagetitle>DLA-1181-1 xen</define-tag>
<define-tag report_date>2017-11-20</define-tag>
<define-tag secrefs>CVE-2017-15588 CVE-2017-15589 CVE-2017-15592 CVE-2017-15593 CVE-2017-15595</define-tag>
<define-tag packages>xen</define-tag>
<define-tag isvulnerable>yes</define-tag>
<define-tag fixed>yes</define-tag>
<define-tag fixed-section>no</define-tag>

#use wml::debian::security

