<define-tag pagetitle>DLA-1149-1 wget</define-tag>
<define-tag report_date>2017-10-27</define-tag>
<define-tag secrefs>CVE-2017-13089 CVE-2017-13090</define-tag>
<define-tag packages>wget</define-tag>
<define-tag isvulnerable>yes</define-tag>
<define-tag fixed>yes</define-tag>
<define-tag fixed-section>no</define-tag>

#use wml::debian::security

