<define-tag pagetitle>DLA-1104-1 newsbeuter</define-tag>
<define-tag report_date>2017-9-21</define-tag>
<define-tag secrefs>CVE-2017-14500 Bug#876004</define-tag>
<define-tag packages>newsbeuter</define-tag>
<define-tag isvulnerable>yes</define-tag>
<define-tag fixed>yes</define-tag>
<define-tag fixed-section>no</define-tag>

#use wml::debian::security

