<define-tag pagetitle>DLA-964-1 xen</define-tag>
<define-tag report_date>2017-6-1</define-tag>
<define-tag secrefs>CVE-2016-9932 CVE-2017-7995 CVE-2017-8903 CVE-2017-8904 CVE-2017-8905</define-tag>
<define-tag packages>xen</define-tag>
<define-tag isvulnerable>yes</define-tag>
<define-tag fixed>yes</define-tag>
<define-tag fixed-section>no</define-tag>

#use wml::debian::security

