<define-tag pagetitle>DLA-1578-1 spamassassin</define-tag>
<define-tag report_date>2018-11-13</define-tag>
<define-tag secrefs>CVE-2016-1238 CVE-2017-15705 CVE-2018-11780 CVE-2018-11781 Bug#784023 Bug#865924 Bug#883775 Bug#889501 Bug#891041 Bug#908969 Bug#908970 Bug#908971 Bug#91</define-tag>
<define-tag packages>spamassassin</define-tag>
<define-tag isvulnerable>yes</define-tag>
<define-tag fixed>yes</define-tag>
<define-tag fixed-section>no</define-tag>

#use wml::debian::security

