<define-tag pagetitle>DLA-1277-1 audacity</define-tag>
<define-tag report_date>2018-2-12</define-tag>
<define-tag secrefs>CVE-2016-2540</define-tag>
<define-tag packages>audacity</define-tag>
<define-tag isvulnerable>yes</define-tag>
<define-tag fixed>yes</define-tag>
<define-tag fixed-section>no</define-tag>

#use wml::debian::security

