<define-tag pagetitle>DLA-1287-1 zziplib</define-tag>
<define-tag report_date>2018-2-20</define-tag>
<define-tag secrefs>CVE-2018-6869</define-tag>
<define-tag packages>zziplib</define-tag>
<define-tag isvulnerable>yes</define-tag>
<define-tag fixed>yes</define-tag>
<define-tag fixed-section>no</define-tag>

#use wml::debian::security

