<define-tag pagetitle>DLA-1459-1 cgit</define-tag>
<define-tag report_date>2018-8-6</define-tag>
<define-tag secrefs>CVE-2018-14912 Bug##905382</define-tag>
<define-tag packages>cgit</define-tag>
<define-tag isvulnerable>yes</define-tag>
<define-tag fixed>yes</define-tag>
<define-tag fixed-section>no</define-tag>

#use wml::debian::security

