<define-tag pagetitle>DLA-1258-1 wireshark</define-tag>
<define-tag report_date>2018-1-26</define-tag>
<define-tag secrefs>CVE-2018-5334 CVE-2018-5335 CVE-2018-5336</define-tag>
<define-tag packages>wireshark</define-tag>
<define-tag isvulnerable>yes</define-tag>
<define-tag fixed>yes</define-tag>
<define-tag fixed-section>no</define-tag>

#use wml::debian::security

