<define-tag pagetitle>DSA-4503-1 golang-1.11</define-tag>
<define-tag report_date>2019-8-18</define-tag>
<define-tag secrefs>CVE-2019-9512 CVE-2019-9514 CVE-2019-14809</define-tag>
<define-tag packages>golang-1.11</define-tag>
<define-tag isvulnerable>yes</define-tag>
<define-tag fixed>yes</define-tag>
<define-tag fixed-section>no</define-tag>

#use wml::debian::security



</dl>
