<define-tag pagetitle>DSA-4483-1 libreoffice</define-tag>
<define-tag report_date>2019-7-16</define-tag>
<define-tag secrefs>CVE-2019-9848 CVE-2019-9849</define-tag>
<define-tag packages>libreoffice</define-tag>
<define-tag isvulnerable>yes</define-tag>
<define-tag fixed>yes</define-tag>
<define-tag fixed-section>no</define-tag>

#use wml::debian::security



</dl>
