<define-tag pagetitle>DLA-1892-1 flask</define-tag>
<define-tag report_date>2019-08-20</define-tag>
<define-tag secrefs>CVE-2018-1000656</define-tag>
<define-tag packages>flask</define-tag>
<define-tag isvulnerable>yes</define-tag>
<define-tag fixed>yes</define-tag>
<define-tag fixed-section>no</define-tag>

#use wml::debian::security

