<define-tag pagetitle>DLA-1866-2 glib2.0</define-tag>
<define-tag report_date>2019-08-06</define-tag>
<define-tag secrefs>CVE-2019-13012 Bug#933877</define-tag>
<define-tag packages>glib2.0</define-tag>
<define-tag isvulnerable>yes</define-tag>
<define-tag fixed>yes</define-tag>
<define-tag fixed-section>no</define-tag>

#use wml::debian::security

