<define-tag pagetitle>DLA-526-1 mysql-connector-java</define-tag>
<define-tag report_date>2016-6-25</define-tag>
<define-tag secrefs>CVE-2015-2575</define-tag>
<define-tag packages>mysql-connector-java</define-tag>
<define-tag isvulnerable>yes</define-tag>
<define-tag fixed>yes</define-tag>
<define-tag fixed-section>no</define-tag>

#use wml::debian::security

