<define-tag pagetitle>DLA-651-1 graphicsmagick</define-tag>
<define-tag report_date>2016-10-11</define-tag>
<define-tag secrefs>CVE-2016-7446 CVE-2016-7447 CVE-2016-7449 CVE-2016-7800</define-tag>
<define-tag packages>graphicsmagick</define-tag>
<define-tag isvulnerable>yes</define-tag>
<define-tag fixed>yes</define-tag>
<define-tag fixed-section>no</define-tag>

#use wml::debian::security

