<define-tag pagetitle>DLA-586-1 curl</define-tag>
<define-tag report_date>2016-8-4</define-tag>
<define-tag secrefs>CVE-2016-5419 CVE-2016-5420</define-tag>
<define-tag packages>curl</define-tag>
<define-tag isvulnerable>yes</define-tag>
<define-tag fixed>yes</define-tag>
<define-tag fixed-section>no</define-tag>

#use wml::debian::security

